…
Here's the result from our example data:

```
# A tibble: 46 x 2
   word                  n
   <chr>             <int>
 1 giving birth          2
 2 prostate cancer       2
 3 side effects          2
 4 3 sum                 1
 5 abnormal child        1
 6 abov sexualhealth     1
 7 ady ngozi             1
 8 age improve           1
 9 anal sex              1
10 blood clotting        1
# … with 36 more rows
```
…
  # recount
  # ---------------------------------------------------------------------------
    group_by(word) %>%  # if tokenized by group: group_by(genAge, word) %>% 
    summarise(n = sum(n)) %>%
    arrange(desc(n)) %>%
  # remove stop words again
    anti_join(stop_words) %>%
    filter(!(word %in% stop$niviStop)) 
```

Here's the result from our example data:

```
# A tibble: 121 x 2
   word                     n
   <chr>                <int>
 1 contraception/method    12
 2 sex                      8
 3 period                   7
 4 age                      6
 5 safe                     6
 6 sexual                   6
 7 sign/symptom             6
 8 blood/bleed              4
 9 cancer                   4
10 effect/side effect       4
# … with 111 more rows
```
…
